%YAML 1.1
%TAG !u! tag:unity3d.com,2011:
--- !u!1001 &4741466578760622093
PrefabInstance:
  m_ObjectHideFlags: 0
  serializedVersion: 2
  m_Modification:
    m_TransformParent: {fileID: 0}
    m_Modifications:
    - target: {fileID: 7192663952229215015, guid: 8592f68dee3867047a089cca5812c2ca,
        type: 3}
      propertyPath: m_Name
      value: Gen1
      objectReference: {fileID: 0}
    - target: {fileID: 7192663952229215013, guid: 8592f68dee3867047a089cca5812c2ca,
        type: 3}
      propertyPath: m_LocalPosition.x
      value: 525.73
      objectReference: {fileID: 0}
    - target: {fileID: 7192663952229215013, guid: 8592f68dee3867047a089cca5812c2ca,
        type: 3}
      propertyPath: m_LocalPosition.y
      value: 444.33
      objectReference: {fileID: 0}
    - target: {fileID: 7192663952229215013, guid: 8592f68dee3867047a089cca5812c2ca,
        type: 3}
      propertyPath: m_LocalPosition.z
      value: 6.69
      objectReference: {fileID: 0}
    - target: {fileID: 7192663952229215013, guid: 8592f68dee3867047a089cca5812c2ca,
        type: 3}
      propertyPath: m_LocalRotation.x
      value: -0
      objectReference: {fileID: 0}
    - target: {fileID: 7192663952229215013, guid: 8592f68dee3867047a089cca5812c2ca,
        type: 3}
      propertyPath: m_LocalRotation.y
      value: -0
      objectReference: {fileID: 0}
    - target: {fileID: 7192663952229215013, guid: 8592f68dee3867047a089cca5812c2ca,
        type: 3}
      propertyPath: m_LocalRotation.z
      value: -0
      objectReference: {fileID: 0}
    - target: {fileID: 7192663952229215013, guid: 8592f68dee3867047a089cca5812c2ca,
        type: 3}
      propertyPath: m_LocalRotation.w
      value: 1
      objectReference: {fileID: 0}
    - target: {fileID: 7192663952229215013, guid: 8592f68dee3867047a089cca5812c2ca,
        type: 3}
      propertyPath: m_RootOrder
      value: 0
      objectReference: {fileID: 0}
    - target: {fileID: 7192663952229215013, guid: 8592f68dee3867047a089cca5812c2ca,
        type: 3}
      propertyPath: m_LocalEulerAnglesHint.x
      value: 0
      objectReference: {fileID: 0}
    - target: {fileID: 7192663952229215013, guid: 8592f68dee3867047a089cca5812c2ca,
        type: 3}
      propertyPath: m_LocalEulerAnglesHint.y
      value: 0
      objectReference: {fileID: 0}
    - target: {fileID: 7192663952229215013, guid: 8592f68dee3867047a089cca5812c2ca,
        type: 3}
      propertyPath: m_LocalEulerAnglesHint.z
      value: 0
      objectReference: {fileID: 0}
    - target: {fileID: 4421244321685361369, guid: 8592f68dee3867047a089cca5812c2ca,
        type: 3}
      propertyPath: m_LocalPosition.x
      value: 1.7500206
      objectReference: {fileID: 0}
    - target: {fileID: 4421244321685361369, guid: 8592f68dee3867047a089cca5812c2ca,
        type: 3}
      propertyPath: m_LocalPosition.y
      value: 0.12
      objectReference: {fileID: 0}
    - target: {fileID: 4421244321685361369, guid: 8592f68dee3867047a089cca5812c2ca,
        type: 3}
      propertyPath: m_LocalScale.x
      value: 0.3332549
      objectReference: {fileID: 0}
    - target: {fileID: 4421244321685361369, guid: 8592f68dee3867047a089cca5812c2ca,
        type: 3}
      propertyPath: m_LocalScale.y
      value: 0.29135442
      objectReference: {fileID: 0}
    - target: {fileID: 4421244321685361369, guid: 8592f68dee3867047a089cca5812c2ca,
        type: 3}
      propertyPath: m_LocalRotation.z
      value: 0.3341506
      objectReference: {fileID: 0}
    - target: {fileID: 4421244321685361369, guid: 8592f68dee3867047a089cca5812c2ca,
        type: 3}
      propertyPath: m_LocalRotation.w
      value: -0.94251966
      objectReference: {fileID: 0}
    - target: {fileID: 4421244321685361369, guid: 8592f68dee3867047a089cca5812c2ca,
        type: 3}
      propertyPath: m_LocalEulerAnglesHint.z
      value: -39.042004
      objectReference: {fileID: 0}
    - target: {fileID: 7192663952229215034, guid: 8592f68dee3867047a089cca5812c2ca,
        type: 3}
      propertyPath: m_animator
      value: 
      objectReference: {fileID: 8522237647355816763}
    - target: {fileID: 7192663952229215034, guid: 8592f68dee3867047a089cca5812c2ca,
        type: 3}
      propertyPath: m_engineSound
      value: 
      objectReference: {fileID: 7499658882445375077}
    m_RemovedComponents: []
  m_SourcePrefab: {fileID: 100100000, guid: 8592f68dee3867047a089cca5812c2ca, type: 3}
--- !u!95 &8522237647355816763 stripped
Animator:
  m_CorrespondingSourceObject: {fileID: -5221920161582068938, guid: 8592f68dee3867047a089cca5812c2ca,
    type: 3}
  m_PrefabInstance: {fileID: 4741466578760622093}
  m_PrefabAsset: {fileID: 0}
--- !u!82 &7499658882445375077 stripped
AudioSource:
  m_CorrespondingSourceObject: {fileID: 3015501622381614696, guid: 8592f68dee3867047a089cca5812c2ca,
    type: 3}
  m_PrefabInstance: {fileID: 4741466578760622093}
  m_PrefabAsset: {fileID: 0}
