%YAML 1.1
%TAG !u! tag:unity3d.com,2011:
--- !u!1001 &989622227477748026
PrefabInstance:
  m_ObjectHideFlags: 0
  serializedVersion: 2
  m_Modification:
    m_TransformParent: {fileID: 0}
    m_Modifications:
    - target: {fileID: 3902511470542857001, guid: 0dd60e93ff4e94341a5ecdea8b8158ac,
        type: 3}
      propertyPath: m_Name
      value: GreenGen3
      objectReference: {fileID: 0}
    - target: {fileID: 3320910151200200380, guid: 0dd60e93ff4e94341a5ecdea8b8158ac,
        type: 3}
      propertyPath: m_LocalPosition.x
      value: 428.2052
      objectReference: {fileID: 0}
    - target: {fileID: 3320910151200200380, guid: 0dd60e93ff4e94341a5ecdea8b8158ac,
        type: 3}
      propertyPath: m_LocalPosition.y
      value: 596.17285
      objectReference: {fileID: 0}
    - target: {fileID: 3320910151200200380, guid: 0dd60e93ff4e94341a5ecdea8b8158ac,
        type: 3}
      propertyPath: m_LocalPosition.z
      value: 0
      objectReference: {fileID: 0}
    - target: {fileID: 3320910151200200380, guid: 0dd60e93ff4e94341a5ecdea8b8158ac,
        type: 3}
      propertyPath: m_LocalRotation.x
      value: 0
      objectReference: {fileID: 0}
    - target: {fileID: 3320910151200200380, guid: 0dd60e93ff4e94341a5ecdea8b8158ac,
        type: 3}
      propertyPath: m_LocalRotation.y
      value: 0
      objectReference: {fileID: 0}
    - target: {fileID: 3320910151200200380, guid: 0dd60e93ff4e94341a5ecdea8b8158ac,
        type: 3}
      propertyPath: m_LocalRotation.z
      value: 0
      objectReference: {fileID: 0}
    - target: {fileID: 3320910151200200380, guid: 0dd60e93ff4e94341a5ecdea8b8158ac,
        type: 3}
      propertyPath: m_LocalRotation.w
      value: 1
      objectReference: {fileID: 0}
    - target: {fileID: 3320910151200200380, guid: 0dd60e93ff4e94341a5ecdea8b8158ac,
        type: 3}
      propertyPath: m_RootOrder
      value: 0
      objectReference: {fileID: 0}
    - target: {fileID: 3320910151200200380, guid: 0dd60e93ff4e94341a5ecdea8b8158ac,
        type: 3}
      propertyPath: m_LocalEulerAnglesHint.x
      value: 0
      objectReference: {fileID: 0}
    - target: {fileID: 3320910151200200380, guid: 0dd60e93ff4e94341a5ecdea8b8158ac,
        type: 3}
      propertyPath: m_LocalEulerAnglesHint.y
      value: 0
      objectReference: {fileID: 0}
    - target: {fileID: 3320910151200200380, guid: 0dd60e93ff4e94341a5ecdea8b8158ac,
        type: 3}
      propertyPath: m_LocalEulerAnglesHint.z
      value: 0
      objectReference: {fileID: 0}
    - target: {fileID: 7062865928359402024, guid: 0dd60e93ff4e94341a5ecdea8b8158ac,
        type: 3}
      propertyPath: m_Sprite
      value: 
      objectReference: {fileID: 21300000, guid: 470b3bbd07878c342931e1b24a4d6c8a,
        type: 3}
    - target: {fileID: 6526613781015476509, guid: 0dd60e93ff4e94341a5ecdea8b8158ac,
        type: 3}
      propertyPath: m_Name
      value: kristall green
      objectReference: {fileID: 0}
    m_RemovedComponents: []
  m_SourcePrefab: {fileID: 100100000, guid: 0dd60e93ff4e94341a5ecdea8b8158ac, type: 3}
