%YAML 1.1
%TAG !u! tag:unity3d.com,2011:
--- !u!1001 &3774490807504806268
PrefabInstance:
  m_ObjectHideFlags: 0
  serializedVersion: 2
  m_Modification:
    m_TransformParent: {fileID: 0}
    m_Modifications:
    - target: {fileID: 8324932367315243009, guid: 7198377029f45cb4584a8a8427ee2fd1,
        type: 3}
      propertyPath: m_Name
      value: Lantern Standing (2)
      objectReference: {fileID: 0}
    - target: {fileID: 2151577302554204940, guid: 7198377029f45cb4584a8a8427ee2fd1,
        type: 3}
      propertyPath: m_LocalPosition.x
      value: 509.98
      objectReference: {fileID: 0}
    - target: {fileID: 2151577302554204940, guid: 7198377029f45cb4584a8a8427ee2fd1,
        type: 3}
      propertyPath: m_LocalPosition.y
      value: 420.01
      objectReference: {fileID: 0}
    - target: {fileID: 2151577302554204940, guid: 7198377029f45cb4584a8a8427ee2fd1,
        type: 3}
      propertyPath: m_LocalPosition.z
      value: 0
      objectReference: {fileID: 0}
    - target: {fileID: 2151577302554204940, guid: 7198377029f45cb4584a8a8427ee2fd1,
        type: 3}
      propertyPath: m_LocalRotation.x
      value: 0
      objectReference: {fileID: 0}
    - target: {fileID: 2151577302554204940, guid: 7198377029f45cb4584a8a8427ee2fd1,
        type: 3}
      propertyPath: m_LocalRotation.y
      value: 0
      objectReference: {fileID: 0}
    - target: {fileID: 2151577302554204940, guid: 7198377029f45cb4584a8a8427ee2fd1,
        type: 3}
      propertyPath: m_LocalRotation.z
      value: 0
      objectReference: {fileID: 0}
    - target: {fileID: 2151577302554204940, guid: 7198377029f45cb4584a8a8427ee2fd1,
        type: 3}
      propertyPath: m_LocalRotation.w
      value: 1
      objectReference: {fileID: 0}
    - target: {fileID: 2151577302554204940, guid: 7198377029f45cb4584a8a8427ee2fd1,
        type: 3}
      propertyPath: m_RootOrder
      value: 0
      objectReference: {fileID: 0}
    - target: {fileID: 2151577302554204940, guid: 7198377029f45cb4584a8a8427ee2fd1,
        type: 3}
      propertyPath: m_LocalEulerAnglesHint.x
      value: 0
      objectReference: {fileID: 0}
    - target: {fileID: 2151577302554204940, guid: 7198377029f45cb4584a8a8427ee2fd1,
        type: 3}
      propertyPath: m_LocalEulerAnglesHint.y
      value: 0
      objectReference: {fileID: 0}
    - target: {fileID: 2151577302554204940, guid: 7198377029f45cb4584a8a8427ee2fd1,
        type: 3}
      propertyPath: m_LocalEulerAnglesHint.z
      value: 0
      objectReference: {fileID: 0}
    - target: {fileID: 8713382455015049758, guid: 7198377029f45cb4584a8a8427ee2fd1,
        type: 3}
      propertyPath: m_Sprite
      value: 
      objectReference: {fileID: 21300000, guid: 470b3bbd07878c342931e1b24a4d6c8a,
        type: 3}
    m_RemovedComponents: []
  m_SourcePrefab: {fileID: 100100000, guid: 7198377029f45cb4584a8a8427ee2fd1, type: 3}
