%YAML 1.1
%TAG !u! tag:unity3d.com,2011:
--- !u!1 &4702494778610202443
GameObject:
  m_ObjectHideFlags: 0
  m_CorrespondingSourceObject: {fileID: 0}
  m_PrefabInstance: {fileID: 0}
  m_PrefabAsset: {fileID: 0}
  serializedVersion: 6
  m_Component:
  - component: {fileID: 4702494778610202440}
  - component: {fileID: 4702494778610202441}
  - component: {fileID: 4702494778610202442}
  m_Layer: 0
  m_Name: Busch 003 (2)
  m_TagString: Untagged
  m_Icon: {fileID: 0}
  m_NavMeshLayer: 0
  m_StaticEditorFlags: 0
  m_IsActive: 1
--- !u!4 &4702494778610202440
Transform:
  m_ObjectHideFlags: 0
  m_CorrespondingSourceObject: {fileID: 0}
  m_PrefabInstance: {fileID: 0}
  m_PrefabAsset: {fileID: 0}
  m_GameObject: {fileID: 4702494778610202443}
  m_LocalRotation: {x: -0, y: -0, z: -0, w: 1}
  m_LocalPosition: {x: 323.08002, y: 446.629, z: 0}
  m_LocalScale: {x: 0.7187611, y: 0.7187611, z: 0.7187611}
  m_Children: []
  m_Father: {fileID: 0}
  m_RootOrder: 0
  m_LocalEulerAnglesHint: {x: 0, y: 0, z: 0}
--- !u!212 &4702494778610202441
SpriteRenderer:
  m_ObjectHideFlags: 0
  m_CorrespondingSourceObject: {fileID: 0}
  m_PrefabInstance: {fileID: 0}
  m_PrefabAsset: {fileID: 0}
  m_GameObject: {fileID: 4702494778610202443}
  m_Enabled: 1
  m_CastShadows: 0
  m_ReceiveShadows: 0
  m_DynamicOccludee: 1
  m_MotionVectors: 1
  m_LightProbeUsage: 1
  m_ReflectionProbeUsage: 1
  m_RenderingLayerMask: 1
  m_RendererPriority: 0
  m_Materials:
  - {fileID: 2100000, guid: ddb6407b2bd7bc84ba223e7bfafff1f1, type: 2}
  m_StaticBatchInfo:
    firstSubMesh: 0
    subMeshCount: 0
  m_StaticBatchRoot: {fileID: 0}
  m_ProbeAnchor: {fileID: 0}
  m_LightProbeVolumeOverride: {fileID: 0}
  m_ScaleInLightmap: 1
  m_PreserveUVs: 0
  m_IgnoreNormalsForChartDetection: 0
  m_ImportantGI: 0
  m_StitchLightmapSeams: 1
  m_SelectedEditorRenderState: 0
  m_MinimumChartSize: 4
  m_AutoUVMaxDistance: 0.5
  m_AutoUVMaxAngle: 89
  m_LightmapParameters: {fileID: 0}
  m_SortingLayerID: 0
  m_SortingLayer: 0
  m_SortingOrder: 1
  m_Sprite: {fileID: 21300000, guid: c962b806ba9a181408add9d34de6b19d, type: 3}
  m_Color: {r: 1, g: 1, b: 1, a: 1}
  m_FlipX: 0
  m_FlipY: 0
  m_DrawMode: 0
  m_Size: {x: 1.45, y: 1.45}
  m_AdaptiveModeThreshold: 0.5
  m_SpriteTileMode: 0
  m_WasSpriteAssigned: 1
  m_MaskInteraction: 0
  m_SpriteSortPoint: 0
--- !u!68 &4702494778610202442
EdgeCollider2D:
  m_ObjectHideFlags: 0
  m_CorrespondingSourceObject: {fileID: 0}
  m_PrefabInstance: {fileID: 0}
  m_PrefabAsset: {fileID: 0}
  m_GameObject: {fileID: 4702494778610202443}
  m_Enabled: 1
  m_Density: 1
  m_Material: {fileID: 0}
  m_IsTrigger: 0
  m_UsedByEffector: 0
  m_UsedByComposite: 0
  m_Offset: {x: 0, y: 0}
  m_EdgeRadius: 0
  m_Points:
  - {x: -0.5665108, y: -0.17561433}
  - {x: -0.43458638, y: -0.05188491}
  - {x: -0.5959726, y: 0.22201914}
  - {x: -0.38672355, y: 0.124785215}
  - {x: -0.47254482, y: 0.36495402}
  - {x: -0.25650853, y: 0.2420793}
  - {x: -0.2924559, y: 0.48702434}
  - {x: -0.1264946, y: 0.3377044}
  - {x: 0.025439693, y: 0.6358415}
  - {x: 0.08803341, y: 0.4618863}
  - {x: 0.19924408, y: 0.54790866}
  - {x: 0.19044577, y: 0.31875032}
  - {x: 0.39436552, y: 0.42684388}
  - {x: 0.33101767, y: 0.23695114}
  - {x: 0.6349868, y: 0.28928852}
  - {x: 0.40059975, y: 0.09949635}
  - {x: 0.6071842, y: 0.016490553}
  - {x: 0.38657272, y: -0.027802669}
  - {x: 0.5097491, y: -0.18325628}
  - {x: 0.38989097, y: -0.19517171}
  - {x: 0.5002972, y: -0.32870498}
  - {x: 0.32302377, y: -0.3359447}
  - {x: 0.42503393, y: -0.48506355}
  - {x: 0.19748442, y: -0.43614495}
  - {x: 0.1804911, y: -0.617541}
  - {x: 0.05867218, y: -0.5091961}
  - {x: -0.0035696013, y: -0.62045705}
  - {x: -0.13433766, y: -0.4576631}
  - {x: -0.221265, y: -0.60089964}
  - {x: -0.2645527, y: -0.4387593}
  - {x: -0.38400865, y: -0.5163353}
  - {x: -0.36068055, y: -0.3246829}
  - {x: -0.47958347, y: -0.33503976}
  - {x: -0.56475115, y: -0.36812142}
  - {x: -0.59733003, y: -0.3643507}
  - {x: -0.47470668, y: -0.22201914}
  - {x: -0.5811411, y: -0.16812319}
  - {x: -0.6022068, y: -0.18758003}
