%YAML 1.1
%TAG !u! tag:unity3d.com,2011:
--- !u!1045 &1
EditorBuildSettings:
  m_ObjectHideFlags: 0
  serializedVersion: 2
  m_Scenes:
  - enabled: 1
    path: Assets/Scenes/MainMenu.unity
    guid: e5e652e2030ed4e4db06c7010bb96329
  - enabled: 1
    path: Assets/Scenes/Actual Game/Level1.unity
    guid: f0cd98eef97035341bebeecaa44ca29f
  - enabled: 1
    path: Assets/Scenes/Actual Game/Slumlevel2.unity
    guid: c1473e04f09a45d4aa82b6d36444651a
  - enabled: 1
    path: Assets/Scenes/Actual Game/Citylevel3.unity
    guid: aceb83d0e50724642a5b69c05abeabc7
  - enabled: 1
    path: Assets/Scenes/Actual Game/Citylevel4.unity
    guid: 38f77493c083e274aa36a37417805221
  - enabled: 1
    path: Assets/Scenes/Actual Game/Techlevel5.unity
    guid: 6698ae7efbea5404e8bafe7e8201fc48
  - enabled: 1
    path: Assets/Scenes/LevelSelect.unity
    guid: 032aa6d32f31a92478026012058c8183
  m_configObjects: {}
